{"count":1279,"page":1,"page_count":4,"page_size":4,"products":[{"brands":"Bjorg","categories":"Alimentos y bebidas de origen vegetal,Alimentos de origen vegetal,Cereales y patatas,Desayunos,Cereales y derivados,Cereales para el desayuno,Copos,Copos de cereales,en:Rolled flakes,Copos de avena","categories_tags":["en:plant-based-foods-and-beverages","en:plant-based-foods","en:cereals-and-potatoes","en:breakfasts","en:cereals-and-their-products","en:breakfast-cereals","en:flakes","en:cereal-flakes","en:rolled-flakes","en:rolled-oats"],"generic_name":"Flocons d'avoine bio","image_small_url":"https://images.openfoodfacts.org/images/products/322/982/001/9307/front_en.195.200.jpg","image_url":"https://images.openfoodfacts.org/images/products/322/982/001/9307/front_en.195.400.jpg","ingredients":[{"id":"en:whole-grain-rolled-oats","labels":"en:organic","percent_estimate":100,"percent_max":100,"percent_min":100,"text":"Flocons d'_avoine_ complète","vegan":"yes","vegetarian":"yes"}],"nutriscore_grade":"a","product_name":"Flocons d'avoine","stores":"Auchan,Leclerc,Magasins U,Carrefour Market","url":"https://world.openfoodfacts.org/product/3229820019307/flocons-d-avoine-bjorg"},{"brands":"Nestlé,Nesquik","categories":"Bebidas,en:Cocoa and its products,Cacaos y chocolates en polvo,Bebidas instantáneas,Chocolates en polvo","categories_tags":["en:beverages","en:cocoa-and-its-products","en:cocoa-and-chocolate-powders","en:instant-beverages","en:chocolate-powders"],"generic_name":"Préparation en poudre instantanée pour boisson cacaotée","image_small_url":"https://images.openfoodfacts.org/images/products/303/371/006/5066/front_en.233.200.jpg","image_url":"https://images.openfoodfacts.org/images/products/303/371/006/5066/front_en.233.400.jpg","ingredients":[{"id":"en:sugar","percent_estimate":50,"percent_max":77,"percent_min":"23","text":"Sucre","vegan":"yes","vegetarian":"yes"},{"id":"en:fat-reduced-cocoa-powder","percent":"23","percent_estimate":23,"percent_max":"23","percent_min":"23","text":"cacao maigre en poudre","vegan":"yes","vegetarian":"yes"},{"id":"en:emulsifier","ingredients":[{"id":"en:soya-lecithin","percent_estimate":11.5,"percent_max":"23","percent_min":0,"text":"lécithine de SOJA","vegan":"yes","vegetarian":"yes"}],"percent_estimate":11.5,"percent_max":"23","percent_min":0,"text":"émulsifiant"},{"id":"en:salt","percent_estimate":7.75,"percent_max":"23","percent_min":0,"text":"sel","vegan":"yes","vegetarian":"yes"},{"id":"en:vitamins","percent_estimate":3.875,"percent_max":18,"percent_min":0,"text":"vitamines","vegan":"yes","vegetarian":"yes"},{"id":"en:e300","percent_estimate":1.9375,"percent_max":13.5,"percent_min":0,"text":"vitamine C","vegan":"yes","vegetarian":"yes"},{"id":"en:vitamin-d","percent_estimate":0.96875,"percent_max":10.8,"percent_min":0,"text":"vitamine D","vegan":"yes","vegetarian":"yes"},{"id":"en:natural-flavouring","percent_estimate":0.484375,"percent_max":9,"percent_min":0,"text":"arôme naturel","vegan":"maybe","vegetarian":"maybe"},{"id":"en:cinnamon","percent_estimate":0.484375,"percent_max":7.71428571428571,"percent_min":0,"text":"cannelle","vegan":"yes","vegetarian":"yes"}],"nutriscore_grade":"d","product_name":"NESQUIK Poudre Cacaotée boîte","stores":"Intermarché,Cora,Magasins U,Leclerc","url":"https://world.openfoodfacts.org/product/3033710065066/nesquik-poudre-cacaotee-boite-nestle"},{"brands":"Lindt","categories":"Botanas,Snacks dulces,en:Cocoa and its products,Chocolates,Ayudas culinarias,Chocolates negros,en:Pastry helpers,en:Dark chocolate bar with more than 70% cocoa,Chocolates negros extra finos","categories_tags":["en:snacks","en:sweet-snacks","en:cocoa-and-its-products","en:chocolates","en:cooking-helpers","en:dark-chocolates","en:pastry-helpers","en:dark-chocolate-bar-with-more-than-70-cocoa","en:extra-fine-dark-chocolates"],"generic_name":"Chocolat noir extra fin, traditionnel","image_small_url":"https://images.openfoodfacts.org/images/products/304/692/002/2606/front_en.102.200.jpg","image_url":"https://images.openfoodfacts.org/images/products/304/692/002/2606/front_en.102.400.jpg","ingredients":[{"id":"en:cocoa-paste","percent_estimate":60,"percent_max":100,"percent_min":20,"text":"Pâte de cacao","vegan":"yes","vegetarian":"yes"},{"id":"en:fat-reduced-cocoa","percent_estimate":20,"percent_max":50,"percent_min":0,"text":"cacao maigre","vegan":"yes","vegetarian":"yes"},{"id":"en:cocoa-butter","percent_estimate":10,"percent_max":33.3333333333333,"percent_min":0,"text":"beurre de cacao","vegan":"yes","vegetarian":"yes"},{"id":"en:brown-sugar","percent_estimate":5,"percent_max":25,"percent_min":0,"text":"cassonade","vegan":"yes","vegetarian":"yes"},{"id":"en:vanilla","percent_estimate":5,"percent_max":20,"percent_min":0,"text":"vanille","vegan":"yes","vegetarian":"yes"}],"nutriscore_grade":"e","product_name":"Excellence 85% Cacao Chocolat Noir Puissant Lindt % Lindt","stores":"Magasins U,Carrefour,Auchan","url":"https://world.openfoodfacts.org/product/3046920022606/excellence-85-cacao-chocolat-noir-puissant-lindt-lindt"},{"brands":"Bjorg","categories":"Alimentos y bebidas de origen vegetal,Alimentos de origen vegetal,Cereales y patatas,Desayunos,Cereales y derivados,Cereales para el desayuno,Muesli,Mueslis con chocolate","categories_tags":["en:plant-based-foods-and-beverages","en:plant-based-foods","en:cereals-and-potatoes","en:breakfasts","en:cereals-and-their-products","en:breakfast-cereals","en:mueslis","en:mueslis-with-chocolate"],"generic_name":"Muesli","image_small_url":"https://images.openfoodfacts.org/images/products/322/982/076/9165/front_en.134.200.jpg","image_url":"https://images.openfoodfacts.org/images/products/322/982/076/9165/front_en.134.400.jpg","ingredients":[{"id":"en:whole-grain-oat-flakes","percent":"45","percent_estimate":45,"text":"Flocons d'avoine complet","vegan":"yes","vegetarian":"yes"},{"id":"fr:flocons croustillants d'avoine","ingredients":[{"id":"en:whole-grain-oats","percent":"25.6","percent_estimate":25.6,"text":"avoine complet","vegan":"yes","vegetarian":"yes"},{"id":"en:honey","percent_estimate":7.4,"text":"miel","vegan":"no","vegetarian":"yes"}],"percent":"33","percent_estimate":"33","text":"flocons croustillants d'avoine"},{"id":"fr:pétales de maïs au chocolat","ingredients":[{"id":"en:corn-flakes","ingredients":[{"id":"en:corn","percent_estimate":1.75,"text":"maïs","vegan":"yes","vegetarian":"yes"},{"id":"en:unrefined-cane-sugar","percent_estimate":0.875,"text":"sucre de canne brut","vegan":"yes","vegetarian":"yes"},{"id":"en:sea-salt","percent_estimate":0.4375,"text":"sel de mer","vegan":"yes","vegetarian":"yes"},{"id":"fr:malt de maïs","percent_estimate":0.4375,"text":"malt de maïs"}],"percent_estimate":3.5,"text":"pétales de maïs","vegan":"yes","vegetarian":"yes"},{"id":"en:unrefined-cane-sugar","percent_estimate":1.75,"text":"sucre de canne brut","vegan":"yes","vegetarian":"yes"},{"id":"en:cocoa-butter","percent_estimate":0.875,"text":"beurre de cacao","vegan":"yes","vegetarian":"yes"},{"id":"en:cocoa-paste","percent_estimate":0.4375,"text":"pâte de cacao","vegan":"yes","vegetarian":"yes"},{"id":"en:whole-milk-powder","percent_estimate":0.21875,"text":"lait entier en poudre","vegan":"no","vegetarian":"yes"},{"id":"en:glazing-agent","ingredients":[{"id":"en:e414","percent_estimate":0.21875,"text":"gomme arabique","vegan":"yes","vegetarian":"yes"}],"percent_estimate":0.21875,"text":"agent d'enrobage"}],"percent":"7","percent_estimate":"7","text":"pétales de maïs au chocolat"},{"id":"en:chocolate","ingredients":[{"id":"en:cocoa-paste","percent_estimate":3.5,"text":"pâte de cacao","vegan":"yes","vegetarian":"yes"},{"id":"en:unrefined-cane-sugar","percent_estimate":1.75,"text":"sucre de canne brut","vegan":"yes","vegetarian":"yes"},{"id":"en:cocoa-butter","percent_estimate":1.75,"text":"beurre de cacao","vegan":"yes","vegetarian":"yes"}],"percent":"7","percent_estimate":"7","text":"chocolat","vegan":"maybe","vegetarian":"yes"},{"id":"en:whole-grain-spelt-flakes","ingredients":[{"id":"en:wheat","percent_estimate":5,"text":"blé","vegan":"yes","vegetarian":"yes"}],"percent":"5","percent_estimate":"5","text":"flocons d'épeautre complet","vegan":"yes","vegetarian":"yes"},{"id":"fr:billettes au cacao","ingredients":[{"id":"en:wheat-flour","percent_estimate":1.5,"text":"farine de blé","vegan":"yes","vegetarian":"yes"},{"id":"en:unrefined-cane-sugar","percent_estimate":0.75,"text":"sucre de canne brut","vegan":"yes","vegetarian":"yes"},{"id":"en:oat-flour","percent_estimate":0.375,"text":"farine d'avoine","vegan":"yes","vegetarian":"yes"},{"id":"en:cocoa","percent_estimate":0.1875,"text":"cacao","vegan":"yes","vegetarian":"yes"},{"id":"fr:farine de malt ďorge","percent_estimate":0.1875,"text":"farine de malt ďorge"}],"percent":"3","percent_estimate":3,"text":"billettes au cacao"}],"nutriscore_grade":"b","product_name":"Muesli avoine chocolat bio","stores":"Leclerc,Magasins U,Auchan","url":"https://world.openfoodfacts.org/product/3229820769165/muesli-avoine-chocolat-bio-bjorg"}],"skip":0}