{"count":1279,"page":2,"page_count":4,"page_size":4,"products":[{"brands":"Bjorg","categories":"Plant-based foods and beverages,Beverages,Plant-based foods,Nuts and their products,Plant-based beverages,Milk substitute,Plant milks,Nut milks,Almond milks,Unsweetened natural almond milks","categories_tags":["en:plant-based-foods-and-beverages","en:beverages","en:plant-based-foods","en:nuts-and-their-products","en:plant-based-beverages","en:milk-substitute","en:plant-milks","en:nut-milks","en:almond-milks","en:unsweetened-natural-almond-milks"],"generic_name":"boisson biologique à base d'amandes sans sucres et d'algue Lithothamnium calcareum source de calcium, avec arôme naturel, stérilisée UHT","image_small_url":"https://images.openfoodfacts.org/images/products/322/982/078/7015/front_fr.130.200.jpg","image_url":"https://images.openfoodfacts.org/images/products/322/982/078/7015/front_fr.130.400.jpg","ingredients":[{"id":"fr:Lait d'_amandes_","ingredients":[{"id":"en:water","percent_estimate":60.325,"percent_max":96.8,"percent_min":46.3,"text":"eau","vegan":"yes","vegetarian":"yes"},{"id":"en:almond","labels":"en:organic","percent":"2.8","percent_estimate":14.025,"percent_max":"2.8","percent_min":"2.8","text":"_amandes_","vegan":"yes","vegetarian":"yes"}],"labels":"en:organic","percent_estimate":74.35,"percent_max":99.6,"percent_min":49.1,"text":"Lait d'_amandes_"},{"id":"en:rice-starch","labels":"en:organic","percent_estimate":12.925,"percent_max":49.9,"percent_min":"0.2","text":"amidon de riz","vegan":"yes","vegetarian":"yes"},{"id":"en:lithothamnium-calcareum","percent":"0.2","percent_estimate":0.2,"percent_max":"0.2","percent_min":"0.2","text":"algue marine Lithothamnium calcareum","vegan":"yes","vegetarian":"yes"},{"id":"en:natural-almond-flavouring","percent_estimate":0.1,"percent_max":"0.2","percent_min":0,"text":"arôme naturel d'amande","vegan":"maybe","vegetarian":"maybe"},{"id":"en:sea-salt","percent_estimate":0.1,"percent_max":"0.2","percent_min":0,"text":"sel marin","vegan":"yes","vegetarian":"yes"},{"id":"en:stabiliser","ingredients":[{"id":"en:e412","labels":"en:organic","percent_estimate":0.1,"percent_max":"0.2","percent_min":0,"text":"gomme guar","vegan":"yes","vegetarian":"yes"}],"percent_estimate":0.1,"percent_max":"0.2","percent_min":0,"text":"stabilisants"},{"id":"en:e415","percent_estimate":12.225,"percent_max":"0.2","percent_min":0,"text":"gomme xanthane","vegan":"yes","vegetarian":"yes"}],"nutriscore_grade":"b","product_name":"Amande sans sucre","stores":"Magasins U,Intermarché,Auchan","url":"https://world.openfoodfacts.org/product/3229820787015/amande-sans-sucre-bjorg"},{"brands":"Bjorg","categories":"Plant-based foods and beverages,Plant-based foods,Cereals and potatoes,Breakfasts,Cereals and their products,Breakfast cereals,Chocolate cereals,Crunchy cereal clusters,Cereal clusters with chocolate","categories_tags":["en:plant-based-foods-and-beverages","en:plant-based-foods","en:cereals-and-potatoes","en:breakfasts","en:cereals-and-their-products","en:breakfast-cereals","en:chocolate-cereals","en:crunchy-cereal-clusters","en:cereal-clusters-with-chocolate"],"generic_name":"Pépites croustillantes de céréales au chocolat noir","image_small_url":"https://images.openfoodfacts.org/images/products/322/982/016/0672/front_fr.248.200.jpg","image_url":"https://images.openfoodfacts.org/images/products/322/982/016/0672/front_fr.248.400.jpg","ingredients":[{"id":"en:whole-grain-rolled-oats","percent":"34","percent_estimate":34,"text":"Flocon d'avoine complète","vegan":"yes","vegetarian":"yes"},{"id":"de:weizenvollkornflocken","percent":"17","percent_estimate":17,"text":"Flocon de blé complet","vegan":"yes","vegetarian":"yes"},{"id":"en:unrefined-cane-sugar","percent":"12","percent_estimate":12,"text":"Sucre de canne non raffiné","vegan":"yes","vegetarian":"yes"},{"id":"en:dark-chocolate","ingredients":[{"id":"en:cocoa-paste","percent_estimate":5,"text":"pate de cacao","vegan":"yes","vegetarian":"yes"},{"id":"en:cane-sugar","percent_estimate":2.5,"text":"sucre de canne","vegan":"yes","vegetarian":"yes"},{"id":"en:cocoa-butter","percent_estimate":2.5,"text":"beurre de cacao","vegan":"yes","vegetarian":"yes"}],"percent":"10","percent_estimate":"10","text":"Chocolat noir","vegan":"maybe","vegetarian":"yes"},{"id":"en:extruded-cereals","ingredients":[{"id":"en:rice-flour","percent_estimate":4.5,"text":"farine de riz","vegan":"yes","vegetarian":"yes"},{"id":"en:barley-malt-flour","percent_estimate":2.25,"text":"farine de malt d'orge","vegan":"yes","vegetarian":"yes"},{"id":"en:sea-salt","percent_estimate":2.25,"text":"sel de mer","vegan":"yes","vegetarian":"yes"}],"percent":"9","percent_estimate":"9","text":"Céréales extrudées","vegan":"yes","vegetarian":"yes"},{"id":"en:wheat-flour","percent":"7","percent_estimate":7,"text":"Farine de blé","vegan":"yes","vegetarian":"yes"},{"from_palm_oil":"no","id":"en:high-oleic-sunflower-oil","percent_estimate":5.5,"text":"Huile de tournesol oléique","vegan":"yes","vegetarian":"yes"},{"id":"en:flax-seed","percent":"3.5","percent_estimate":3.5,"text":"Graine de lin","vegan":"yes","vegetarian":"yes"},{"id":"fr:Noix de coco rapée","percent_estimate":2,"text":"Noix de coco rapée"}],"nutriscore_grade":"c","product_name":"Croustillant Chocolat","stores":"Intermarché","url":"https://world.openfoodfacts.org/product/3229820160672/croustillant-chocolat-bjorg"},{"brands":"Jordans","categories":"Aliments et boissons à base de végétaux,Aliments d'origine végétale,Céréales et pommes de terre,Petit-déjeuners,Céréales et dérivés,Céréales pour petit-déjeuner,Céréales au chocolat,Pépites de céréales croustillantes,Pépites de céréales au chocolat","categories_tags":["en:plant-based-foods-and-beverages","en:plant-based-foods","en:cereals-and-potatoes","en:breakfasts","en:cereals-and-their-products","en:breakfast-cereals","en:chocolate-cereals","en:crunchy-cereal-clusters","en:cereal-clusters-with-chocolate"],"generic_name":"Céréales pour petit-déjeuner","image_small_url":"https://images.openfoodfacts.org/images/products/501/047/734/8395/front_fr.115.200.jpg","image_url":"https://images.openfoodfacts.org/images/products/501/047/734/8395/front_fr.115.400.jpg","ingredients":[{"id":"en:wholemeal-cereal","ingredients":[{"id":"en:oat-flakes","percent_estimate":24,"text":"flocons d'avoine","vegan":"yes","vegetarian":"yes"},{"id":"en:oat-flour","percent_estimate":24,"text":"farine d'avoine","vegan":"yes","vegetarian":"yes"}],"percent":"48","percent_estimate":"48","text":"Céréales complètes","vegan":"yes","vegetarian":"yes"},{"id":"en:sugar","percent_estimate":26,"text":"sucre","vegan":"yes","vegetarian":"yes"},{"id":"en:dark-chocolate-chunks","percent":"12","percent_estimate":12,"text":"copeaux de chocolat noir","vegan":"maybe","vegetarian":"yes"},{"id":"en:cocoa","ingredients":[{"id":"en:cocoa-paste","percent_estimate":14,"text":"masse de cacao","vegan":"yes","vegetarian":"yes"}],"percent":"70","percent_estimate":14,"text":"cacao","vegan":"yes","vegetarian":"yes"},{"id":"en:sugar","percent_estimate":0,"text":"sucre","vegan":"yes","vegetarian":"yes"},{"id":"en:cocoa-butter","percent_estimate":0,"text":"beurre de cacao","vegan":"yes","vegetarian":"yes"},{"id":"en:emulsifier","ingredients":[{"id":"en:soya-lecithin","percent_estimate":0,"text":"lécithine de soja","vegan":"yes","vegetarian":"yes"}],"percent_estimate":0,"text":"émulsifiant"},{"id":"en:natural-flavouring","percent_estimate":0,"text":"arôme naturel","vegan":"maybe","vegetarian":"maybe"},{"id":"en:barley-flakes","percent_estimate":0,"text":"flocons d'orge","vegan":"yes","vegetarian":"yes"},{"from_palm_oil":"no","id":"en:sunflower-oil","percent_estimate":0,"text":"huile de tournesol","vegan":"yes","vegetarian":"yes"},{"id":"en:rice-flour","percent_estimate":0,"text":"farine de riz","vegan":"yes","vegetarian":"yes"},{"id":"en:desiccated-coconut","percent_estimate":0,"text":"noix de coco séchée","vegan":"yes","vegetarian":"yes"},{"id":"en:natural-flavouring","percent_estimate":0,"text":"arôme naturel","vegan":"maybe","vegetarian":"maybe"},{"id":"fr:Informations sur les allergènes","ingredients":[{"id":"fr:les allergènes","percent_estimate":0,"text":"les allergènes"}],"percent_estimate":0,"text":"Informations sur les allergènes"},{"id":"fr:y compris les céréales contenant du gluten","percent_estimate":0,"text":"y compris les céréales contenant du gluten"},{"id":"fr:sont indiqués en gras","percent_estimate":0,"text":"sont indiqués en gras"},{"id":"en:walnut","percent_estimate":0,"text":"noix","vegan":"yes","vegetarian":"yes"},{"id":"fr:autres sources de gluten","percent_estimate":0,"text":"autres sources de gluten"}],"nutriscore_grade":"c","product_name":"Country Crisp - Chocolat noir 70% cacao","stores":"U,Magasins U,Auchan","url":"https://world.openfoodfacts.org/product/5010477348395/country-crisp-chocolat-noir-70-cacao-jordans"},{"brands":"Alvalle","categories":"Alimentos y bebidas de origen vegetal,Bebidas,Alimentos de origen vegetal,Frutas y verduras y sus productos,Comidas preparadas,Verduras y hortalizas y sus productos,Alimentos frescos,Sopas,Comidas preparadas frescas,Refrigerados,Sopas de verduras y hortalizas,Sopas frías,Comidas preparadas refrigeradas,Gazpachos,Sopas refrigeradas","categories_tags":["en:plant-based-foods-and-beverages","en:beverages","en:plant-based-foods","en:fruits-and-vegetables-based-foods","en:meals","en:vegetables-based-foods","en:fresh-foods","en:soups","en:fresh-meals","en:refrigerated-foods","en:vegetable-soups","en:cold-soups","en:refrigerated-meals","en:gazpacho","en:refrigerated-soups"],"generic_name":"Soupe froide de légumes","image_small_url":"https://images.openfoodfacts.org/images/products/541/018/803/1072/front_en.133.200.jpg","image_url":"https://images.openfoodfacts.org/images/products/541/018/803/1072/front_en.133.400.jpg","ingredients":[{"id":"en:tomato","percent_estimate":50,"text":"Tomate","vegan":"yes","vegetarian":"yes"},{"id":"en:bell-pepper","percent_estimate":25,"text":"poivron","vegan":"yes","vegetarian":"yes"},{"id":"en:cucumber","percent_estimate":12.5,"text":"concombre","vegan":"yes","vegetarian":"yes"},{"id":"en:onion","percent_estimate":6.25,"text":"oignon","vegan":"yes","vegetarian":"yes"},{"from_palm_oil":"no","id":"en:extra-virgin-olive-oil","percent":"2.6","percent_estimate":2.6,"text":"huile d'olive vierge extra","vegan":"yes","vegetarian":"yes"},{"id":"en:wine-vinegar","percent_estimate":1.825,"text":"vinaigre de vin","vegan":"yes","vegetarian":"yes"},{"id":"en:salt","percent_estimate":0.912500000000001,"text":"sel","vegan":"yes","vegetarian":"yes"},{"id":"en:garlic","percent_estimate":0.456249999999997,"text":"ail","vegan":"yes","vegetarian":"yes"},{"id":"en:lemon-juice","percent_estimate":0.228124999999999,"text":"jus de citron","vegan":"yes","vegetarian":"yes"},{"id":"fr:Teneur en légumes","percent":"93","percent_estimate":0.228125000000006,"text":"Teneur en légumes"}],"nutriscore_grade":"a","product_name":"Gazpacho","stores":"Franprix,Magasins U,Auchan","url":"https://world.openfoodfacts.org/product/5410188031072/gazpacho-alvalle"}],"skip":4}